%YAML 1.1
%TAG !u! tag:unity3d.com,2011:
--- !u!114 &11400000
MonoBehaviour:
  m_ObjectHideFlags: 0
  m_PrefabParentObject: {fileID: 0}
  m_PrefabInternal: {fileID: 0}
  m_GameObject: {fileID: 0}
  m_Enabled: 1
  m_EditorHideFlags: 0
  m_Script: {fileID: 11500000, guid: 3ded530a002179f4d971b2e3e1710e45, type: 3}
  m_Name: Settings
  m_EditorClassIdentifier: 
  Balls:
  - {fileID: 114740997304002340, guid: bebc0f0db43e6914ba39b2617bd79efa, type: 2}
  - {fileID: 114740997304002340, guid: b7d6a1220892b914eb5ebaf48cbba854, type: 2}
  - {fileID: 114740997304002340, guid: ddb688c1394eb1345904dcf57ef599c9, type: 2}
  GameDuration: 55
